…
Here are some examples illustrating how these different tools to manipulate the dataset can be chained.

### Example: Ranking European Countries by GDP

For instance, the code below takes the  gapminder dataset and manipulates this data in order to rank European countries by GDP in 2007


```r

gapminder %>% #take the dataset gap
  filter(year ==2007) %>%   #filter observations where year is equal to 2007
  filter(continent == "Europe") %>% #filter observations where variable continent is "Europe"
  mutate(GDP = pop * gdpPercap) %>% #create a new variable "GDP" which multiplies pop * gdpPercap
  arrange(desc(GDP)) #order the observations based on GDP
#> # A tibble: 30 × 7
#>    country  continent  year lifeExp    pop gdpPercap     GDP
#>    <fct>    <fct>     <int>   <dbl>  <int>     <dbl>   <dbl>
#>  1 Germany  Europe     2007    79.4 8.24e7    32170. 2.65e12
#>  2 United … Europe     2007    79.4 6.08e7    33203. 2.02e12
#>  3 France   Europe     2007    80.7 6.11e7    30470. 1.86e12
#>  4 Italy    Europe     2007    80.5 5.81e7    28570. 1.66e12
#>  5 Spain    Europe     2007    80.9 4.04e7    28821. 1.17e12
#>  6 Netherl… Europe     2007    79.8 1.66e7    36798. 6.10e11
#>  7 Turkey   Europe     2007    71.8 7.12e7     8458. 6.02e11
#>  8 Poland   Europe     2007    75.6 3.85e7    15390. 5.93e11
#>  9 Belgium  Europe     2007    79.4 1.04e7    33693. 3.50e11
#> 10 Sweden   Europe     2007    80.9 9.03e6    33860. 3.06e11
#> # … with 20 more rows
```
…
