Chapter 6 Data Transformation with dplyr() | IP2038 - Analysing Political and Economic Data in the Real World - Course Material
…
6.7.1 Grouping by multiple variables

The function group_by() also to create sub-groups based on the variable of a particular variable, and to run subsequent functions on all sub-groups.

For instance, in the example below, instead of calculating the average value of all the observations that belongs to the same continent, we group the observations only by continent and by year before calculating the average gdpPercap. This transformation results into the creation of a dataset where the rows represents each unique combination of the values available for these variables (e.g. Africa in 1957, Asia in 1992).

gapminder %>%
    group_by(continent, year) %>%
    summarize(mean_gdpPercap = mean(gdpPercap))
#> # A tibble: 60 × 3
#> # Groups:   continent [5]
#>    continent  year mean_gdpPercap
#>    <fct>     <int>          <dbl>
#>  1 Africa     1952          1253.
#>  2 Africa     1957          1385.
#>  3 Africa     1962          1598.
#>  4 Africa     1967          2050.
#>  5 Africa     1972          2340.
#>  6 Africa     1977          2586.
#>  7 Africa     1982          2482.
#>  8 Africa     1987          2283.
#>  9 Africa     1992          2282.
#> 10 Africa     1997          2379.
#> # … with 50 more rows
…
When applied with grouped data, summarize creates a data frame with as many rows as groups. The output of summarize() is generally a smaller dataframe with a reduced representation of the input data.

6.8 Sorting observations

We can use the arrange() to sort the rows in our data frame according to values in a certain column.

gapminder %>%
    arrange(year)
#> # A tibble: 1,704 × 6
#>    country     continent  year lifeExp      pop gdpPercap
#>    <fct>       <fct>     <int>   <dbl>    <int>     <dbl>
#>  1 Afghanistan Asia       1952    28.8  8425333      779.
#>  2 Albania     Europe     1952    55.2  1282697     1601.
#>  3 Algeria     Africa     1952    43.1  9279525     2449.
#>  4 Angola      Africa     1952    30.0  4232095     3521.
#>  5 Argentina   Americas   1952    62.5 17876956     5911.
#>  6 Australia   Oceania    1952    69.1  8691212    10040.
#>  7 Austria     Europe     1952    66.8  6927772     6137.
#>  8 Bahrain     Asia       1952    50.9   120447     9867.
#>  9 Bangladesh  Asia       1952    37.5 46886859      684.
#> 10 Belgium     Europe     1952    68    8730405     8343.
#> # … with 1,694 more rows

6.8.1 desc() helper function

When we call the arrange() function, the default is to order numbers from lowest -> highest.
To invert the standard order, we can use the ‘descending’ desc() helper function.

gapminder %>%
    arrange(desc(year))
#> # A tibble: 1,704 × 6
#>    country     continent  year lifeExp       pop gdpPercap
#>    <fct>       <fct>     <int>   <dbl>     <int>     <dbl>
#>  1 Afghanistan Asia       2007    43.8  31889923      975.
#>  2 Albania     Europe     2007    76.4   3600523     5937.
#>  3 Algeria     Africa     2007    72.3  33333216     6223.
#>  4 Angola      Africa     2007    42.7  12420476     4797.
#>  5 Argentina   Americas   2007    75.3  40301927    12779.
#>  6 Australia   Oceania    2007    81.2  20434176    34435.
#>  7 Austria     Europe     2007    79.8   8199783    36126.
#>  8 Bahrain     Asia       2007    75.6    708573    29796.
#>  9 Bangladesh  Asia       2007    64.1 150448339     1391.
#> 10 Belgium     Europe     2007    79.4  10392226    33693.
#> # … with 1,694 more rows
…
Once we’re happy with the output of this chain of functions, we can assign it to a new object in the environment.

Here are some examples illustrating how these different tools to manipulate the dataset can be chained.

6.9.1 Example: Ranking European Countries by GDP

For instance, the code below takes the gapminder dataset and manipulates this data in order to rank European countries by GDP in 2007

gapminder %>% #take the dataset gap
  filter(year ==2007) %>%   #filter observations where year is equal to 2007
  filter(continent == "Europe") %>% #filter observations where variable continent is "Europe"
  mutate(GDP = pop * gdpPercap) %>% #create a new variable "GDP" which multiplies pop * gdpPercap
  arrange(desc(GDP)) #order the observations based on GDP
#> # A tibble: 30 × 7
#>    country  continent  year lifeExp    pop gdpPercap     GDP
#>    <fct>    <fct>     <int>   <dbl>  <int>     <dbl>   <dbl>
#>  1 Germany  Europe     2007    79.4 8.24e7    32170. 2.65e12
#>  2 United … Europe     2007    79.4 6.08e7    33203. 2.02e12
#>  3 France   Europe     2007    80.7 6.11e7    30470. 1.86e12
#>  4 Italy    Europe     2007    80.5 5.81e7    28570. 1.66e12
#>  5 Spain    Europe     2007    80.9 4.04e7    28821. 1.17e12
#>  6 Netherl… Europe     2007    79.8 1.66e7    36798. 6.10e11
#>  7 Turkey   Europe     2007    71.8 7.12e7     8458. 6.02e11
#>  8 Poland   Europe     2007    75.6 3.85e7    15390. 5.93e11
#>  9 Belgium  Europe     2007    79.4 1.04e7    33693. 3.50e11
#> 10 Sweden   Europe     2007    80.9 9.03e6    33860. 3.06e11
#> # … with 20 more rows
…
