Chapter 11 Grouping and Summarising Data | IP2038 - Analysing Political and Economic Data in the Real World - Course Material
…
11.3.1 Grouping by multiple variables

The function group_by() also to create sub-groups based on the variable of a particular variable, and to run subsequent functions on all sub-groups.

For instance, in the example below, instead of calculating the average value of all the observations that belongs to the same continent, we group the observations only by continent and by year before calculating the average gdpPercap. This transformation results into the creation of a dataset where the rows represents each unique combination of the values available for these variables (e.g. Africa in 1957, Asia in 1992).

gapminder %>%
    group_by(continent, year) %>%
    summarize(mean_gdpPercap = mean(gdpPercap))
#> # A tibble: 60 × 3
#> # Groups:   continent [5]
#>    continent  year mean_gdpPercap
#>    <fct>     <int>          <dbl>
#>  1 Africa     1952          1253.
#>  2 Africa     1957          1385.
#>  3 Africa     1962          1598.
#>  4 Africa     1967          2050.
#>  5 Africa     1972          2340.
#>  6 Africa     1977          2586.
#>  7 Africa     1982          2482.
#>  8 Africa     1987          2283.
#>  9 Africa     1992          2282.
#> 10 Africa     1997          2379.
#> # … with 50 more rows
…
