Chapter 6 Long vs. Wide Data | IP2038 - Analysing Political and Economic Data in the Real World - Course Material
…
To facilitate the analysis we can ‘tidy’ this dataset using pivot_longer().

The first argument provided (-religion) indicates what columns need to be reshaped. In this case it is every column apart from religion

The second argument (names_to = "income") indicates the name of the variable that will be created from the data in the column names, in this case income

The third argument (values_to = "count") indicates the name of the variable that will be created from the data stored in the cell value, in this case count

relig_income %>% 
  pivot_longer(-religion, 
               names_to = "income", 
               values_to = "count")
#> # A tibble: 180 × 3
#>    religion income             count
#>    <chr>    <chr>              <dbl>
#>  1 Agnostic <$10k                 27
#>  2 Agnostic $10-20k               34
#>  3 Agnostic $20-30k               60
#>  4 Agnostic $30-40k               81
#>  5 Agnostic $40-50k               76
#>  6 Agnostic $50-75k              137
#>  7 Agnostic $75-100k             122
#>  8 Agnostic $100-150k            109
#>  9 Agnostic >150k                 84
#> 10 Agnostic Don't know/refused    96
#> # … with 170 more rows
…
When we observe the dataset, we can see that the column named variable has two values: income and rent. Both the column estimate (estimated value) and the column moe (90% margin of error) include values for both of income and rent in different American states.

To transform the illustrative table above at left (df_long) into the result at right, would require:

us_rent_income %>%
  pivot_wider(
    names_from = variable,
    values_from = c(estimate, moe)
  )
#> # A tibble: 52 × 6
#>    GEOID NAME       estimate_income estimate_rent moe_income
#>    <chr> <chr>                <dbl>         <dbl>      <dbl>
#>  1 01    Alabama              24476           747        136
#>  2 02    Alaska               32940          1200        508
#>  3 04    Arizona              27517           972        148
#>  4 05    Arkansas             23789           709        165
#>  5 06    California           29454          1358        109
#>  6 08    Colorado             32401          1125        109
#>  7 09    Connectic…           35326          1123        195
#>  8 10    Delaware             31560          1076        247
#>  9 11    District …           43198          1424        681
#> 10 12    Florida              25952          1077         70
#> # … with 42 more rows, and 1 more variable: moe_rent <dbl>
…
We can reshape this dataset with pivot_longer in order to bring the value of the population variable in a single column. In this case, instead of manually listing all the columns to be reshaped, we can indicate the range of names (2000:2017)

pop2 <- world_bank_pop %>% 
  pivot_longer(cols = `2000`:`2017`, 
               names_to = "year", 
               values_to = "value")
pop2
#> # A tibble: 19,008 × 4
#>    country indicator   year  value
#>    <chr>   <chr>       <chr> <dbl>
#>  1 ABW     SP.URB.TOTL 2000  42444
#>  2 ABW     SP.URB.TOTL 2001  43048
#>  3 ABW     SP.URB.TOTL 2002  43670
#>  4 ABW     SP.URB.TOTL 2003  44246
#>  5 ABW     SP.URB.TOTL 2004  44669
#>  6 ABW     SP.URB.TOTL 2005  44889
#>  7 ABW     SP.URB.TOTL 2006  44881
#>  8 ABW     SP.URB.TOTL 2007  44686
#>  9 ABW     SP.URB.TOTL 2008  44375
#> 10 ABW     SP.URB.TOTL 2009  44052
#> # … with 18,998 more rows
…
Since these represent different quantities observed for the same observation (country/year), we can use pivot_wider to split the different types of population count across four different variables.

pop3 <- pop2 %>%
  pivot_wider(names_from = indicator, values_from = value)

pop3
#> # A tibble: 4,752 × 6
#>    country year  SP.URB.TOTL SP.URB.GROW SP.POP.TOTL
#>    <chr>   <chr>       <dbl>       <dbl>       <dbl>
#>  1 ABW     2000        42444      1.18         90853
#>  2 ABW     2001        43048      1.41         92898
#>  3 ABW     2002        43670      1.43         94992
#>  4 ABW     2003        44246      1.31         97017
#>  5 ABW     2004        44669      0.951        98737
#>  6 ABW     2005        44889      0.491       100031
#>  7 ABW     2006        44881     -0.0178      100832
#>  8 ABW     2007        44686     -0.435       101220
#>  9 ABW     2008        44375     -0.698       101353
#> 10 ABW     2009        44052     -0.731       101453
#> # … with 4,742 more rows, and 1 more variable:
#> #   SP.POP.GROW <dbl>
…
