Chapter 10 Working with Variables | IP2038 - Analysing Political and Economic Data in the Real World - Course Material
…
Alternatively it is possible to insert this function in a chain of transformation using the pipe symbol %>%. This includes the following steps:

summon the dataframe

pass it on to the next step using the pipe symbol %>%

use the select() function to choose which variables we want, listing these within parentheses.

# Alternative approach with %>% to select three variables and place them in a new object 
gapminder %>% 
  select(year, country, gdpPercap)
#> # A tibble: 1,704 × 3
#>     year country     gdpPercap
#>    <int> <fct>           <dbl>
#>  1  1952 Afghanistan      779.
#>  2  1957 Afghanistan      821.
#>  3  1962 Afghanistan      853.
#>  4  1967 Afghanistan      836.
#>  5  1972 Afghanistan      740.
#>  6  1977 Afghanistan      786.
#>  7  1982 Afghanistan      978.
#>  8  1987 Afghanistan      852.
#>  9  1992 Afghanistan      649.
#> 10  1997 Afghanistan      635.
#> # … with 1,694 more rows

10.2.1 Removing variables

Instead of specifying the variables that we want to retain, we can also use the select function to specify which variables we would like to drop. In order to do this, we need to add a minus (-) sign in front of the name of the variable we would like to remove.
The code below has removed the variable gdpPercap and pop from the gapminder dataset, while retaining the existing variables in their order

gapminder %>% 
  select(-gdpPercap, -pop)
#> # A tibble: 1,704 × 4
#>    country     continent  year lifeExp
#>    <fct>       <fct>     <int>   <dbl>
#>  1 Afghanistan Asia       1952    28.8
#>  2 Afghanistan Asia       1957    30.3
#>  3 Afghanistan Asia       1962    32.0
#>  4 Afghanistan Asia       1967    34.0
#>  5 Afghanistan Asia       1972    36.1
#>  6 Afghanistan Asia       1977    38.4
#>  7 Afghanistan Asia       1982    39.9
#>  8 Afghanistan Asia       1987    40.8
#>  9 Afghanistan Asia       1992    41.7
#> 10 Afghanistan Asia       1997    41.8
#> # … with 1,694 more rows
…
In order to overwrite an existing variable, we need to assign the results of the mutate function to this variable

10.4.3 Types of transformations

A number of different transformations of our data are possible using the mutate() function.

10.4.3.1 Arithmetical Operations

In the case our variable is a numerical one, we can specify a number of mathematical transformations that will then be applied to each value of the same variable.
For instance, in the example below we create a new variable called pop_million where we transform the scale of the pop variable by dividing the value by one million.

gapminder %>%
  mutate(pop_million = pop/1000000)  #create variable to express population of a country in millions 
#> # A tibble: 1,704 × 8
#>    country     continent  year lifeExp      pop gdpPercap
#>    <fct>       <fct>     <int>   <dbl>    <int>     <dbl>
#>  1 Afghanistan Asia       1952    28.8  8425333      779.
#>  2 Afghanistan Asia       1957    30.3  9240934      821.
#>  3 Afghanistan Asia       1962    32.0 10267083      853.
#>  4 Afghanistan Asia       1967    34.0 11537966      836.
#>  5 Afghanistan Asia       1972    36.1 13079460      740.
#>  6 Afghanistan Asia       1977    38.4 14880372      786.
#>  7 Afghanistan Asia       1982    39.9 12881816      978.
#>  8 Afghanistan Asia       1987    40.8 13867957      852.
#>  9 Afghanistan Asia       1992    41.7 16317921      649.
#> 10 Afghanistan Asia       1997    41.8 22227415      635.
#> # … with 1,694 more rows, and 2 more variables:
#> #   gdpPercapRound <dbl>, pop_million <dbl>

10.4.3.2 Create new variable by from existing variables

We can create new variables or amend the value of an existing one on the basis of the data found in other existing variables in our dataset.

For instance, in the example below we first create a new variable called gdp by multiplying the values for each observations of two existing variables (gdp per capita and population). Here the newly created column will contain the results of a mathematical operation, performed row by row.

# Create new variable by from existing variables
gapminder %>%
  mutate(gdp = gdpPercap * pop) #create "gdp" variable multiplying gdpPercap by population
#> # A tibble: 1,704 × 8
#>    country     continent  year lifeExp      pop gdpPercap
#>    <fct>       <fct>     <int>   <dbl>    <int>     <dbl>
#>  1 Afghanistan Asia       1952    28.8  8425333      779.
#>  2 Afghanistan Asia       1957    30.3  9240934      821.
#>  3 Afghanistan Asia       1962    32.0 10267083      853.
#>  4 Afghanistan Asia       1967    34.0 11537966      836.
#>  5 Afghanistan Asia       1972    36.1 13079460      740.
#>  6 Afghanistan Asia       1977    38.4 14880372      786.
#>  7 Afghanistan Asia       1982    39.9 12881816      978.
#>  8 Afghanistan Asia       1987    40.8 13867957      852.
#>  9 Afghanistan Asia       1992    41.7 16317921      649.
#> 10 Afghanistan Asia       1997    41.8 22227415      635.
#> # … with 1,694 more rows, and 2 more variables:
#> #   gdpPercapRound <dbl>, gdp <dbl>

10.4.4 Use function to transform a variable

It is possible to transform a variable by applying a function, using the following format:

# Round numerical variable
gapminder %>%
  mutate(gdpPercap_Round =
           round(gdpPercap)) #remove decimals from GDP Per capita
#> # A tibble: 1,704 × 8
#>    country     continent  year lifeExp      pop gdpPercap
#>    <fct>       <fct>     <int>   <dbl>    <int>     <dbl>
#>  1 Afghanistan Asia       1952    28.8  8425333      779.
#>  2 Afghanistan Asia       1957    30.3  9240934      821.
#>  3 Afghanistan Asia       1962    32.0 10267083      853.
#>  4 Afghanistan Asia       1967    34.0 11537966      836.
#>  5 Afghanistan Asia       1972    36.1 13079460      740.
#>  6 Afghanistan Asia       1977    38.4 14880372      786.
#>  7 Afghanistan Asia       1982    39.9 12881816      978.
#>  8 Afghanistan Asia       1987    40.8 13867957      852.
#>  9 Afghanistan Asia       1992    41.7 16317921      649.
#> 10 Afghanistan Asia       1997    41.8 22227415      635.
#> # … with 1,694 more rows, and 2 more variables:
#> #   gdpPercapRound <dbl>, gdpPercap_Round <dbl>

10.5 Logical filtering

While the examples below illustrate how mutate() can be used to perform the same transformations to all the rows of the same dataset, in some cases we would like to return a different transformation based on certain conditions. The creation of new variable or the manipulation of existing variables can be associated with a logical test.

10.5.1 Recode()

The recode function from the dplyr package can be used to change or recode specific values in a variable.

For instance, in the example below we take the continent variable in the gapminder dataset and replaces all the values in this variable from “Asia” to “Asian Continent”. All the other observations where the value of the same variable is different from Asia are left untouched.

gapminder %>%
  mutate(continent = recode(continent, "Asia" = "Asian Continent"))
#> # A tibble: 1,704 × 7
#>    country     continent      year lifeExp     pop gdpPercap
#>    <fct>       <fct>         <int>   <dbl>   <int>     <dbl>
#>  1 Afghanistan Asian Contin…  1952    28.8  8.43e6      779.
#>  2 Afghanistan Asian Contin…  1957    30.3  9.24e6      821.
#>  3 Afghanistan Asian Contin…  1962    32.0  1.03e7      853.
#>  4 Afghanistan Asian Contin…  1967    34.0  1.15e7      836.
#>  5 Afghanistan Asian Contin…  1972    36.1  1.31e7      740.
#>  6 Afghanistan Asian Contin…  1977    38.4  1.49e7      786.
#>  7 Afghanistan Asian Contin…  1982    39.9  1.29e7      978.
#>  8 Afghanistan Asian Contin…  1987    40.8  1.39e7      852.
#>  9 Afghanistan Asian Contin…  1992    41.7  1.63e7      649.
#> 10 Afghanistan Asian Contin…  1997    41.8  2.22e7      635.
#> # … with 1,694 more rows, and 1 more variable:
#> #   gdpPercapRound <dbl>
…
