Chapter 9 Working with Observations | IP2038 - Analysing Political and Economic Data in the Real World - Course Material
…
For instance, in the example below we want to retain all the observations after the year 1982.

gapminder_recent <- gapminder %>%
    filter(year > 1982) 

9.3 Sorting observations

We can use the arrange() to sort the rows in our data frame according to values in a certain column.

gapminder %>%
    arrange(year)
#> # A tibble: 1,704 × 6
#>    country     continent  year lifeExp      pop gdpPercap
#>    <fct>       <fct>     <int>   <dbl>    <int>     <dbl>
#>  1 Afghanistan Asia       1952    28.8  8425333      779.
#>  2 Albania     Europe     1952    55.2  1282697     1601.
#>  3 Algeria     Africa     1952    43.1  9279525     2449.
#>  4 Angola      Africa     1952    30.0  4232095     3521.
#>  5 Argentina   Americas   1952    62.5 17876956     5911.
#>  6 Australia   Oceania    1952    69.1  8691212    10040.
#>  7 Austria     Europe     1952    66.8  6927772     6137.
#>  8 Bahrain     Asia       1952    50.9   120447     9867.
#>  9 Bangladesh  Asia       1952    37.5 46886859      684.
#> 10 Belgium     Europe     1952    68    8730405     8343.
#> # … with 1,694 more rows

9.3.1 desc() helper function

When we call the arrange() function, the default is to order numbers from lowest -> highest.
To invert the standard order, we can use the ‘descending’ desc() helper function.

gapminder %>%
    arrange(desc(year))
#> # A tibble: 1,704 × 6
#>    country     continent  year lifeExp       pop gdpPercap
#>    <fct>       <fct>     <int>   <dbl>     <int>     <dbl>
#>  1 Afghanistan Asia       2007    43.8  31889923      975.
#>  2 Albania     Europe     2007    76.4   3600523     5937.
#>  3 Algeria     Africa     2007    72.3  33333216     6223.
#>  4 Angola      Africa     2007    42.7  12420476     4797.
#>  5 Argentina   Americas   2007    75.3  40301927    12779.
#>  6 Australia   Oceania    2007    81.2  20434176    34435.
#>  7 Austria     Europe     2007    79.8   8199783    36126.
#>  8 Bahrain     Asia       2007    75.6    708573    29796.
#>  9 Bangladesh  Asia       2007    64.1 150448339     1391.
#> 10 Belgium     Europe     2007    79.4  10392226    33693.
#> # … with 1,694 more rows
…
